%YAML 1.1
%TAG !u! tag:unity3d.com,2011:
--- !u!78 &1
TagManager:
  serializedVersion: 2
  tags:
  - Canvas
  layers:
  - Default
  - TransparentFX
  - Ignore Raycast
  - 
  - Water
  - UI
  - 
  - 
  - Placement Position
  - Player
  - Holes
  - Emotional Object
  - HolePPL
  - HomePPL
  - 
  - 
  - 
  - 
  - 
  - 
  - 
  - 
  - 
  - 
  - 
  - 
  - 
  - 
  - 
  - 
  - 
  - 
  m_SortingLayers:
  - name: Far Background
    uniqueID: 3072714477
    locked: 0
  - name: Background
    uniqueID: 1454214475
    locked: 0
  - name: Default
    uniqueID: 0
    locked: 0
  - name: Top
    uniqueID: 3089938317
    locked: 0
